{
  "data": [
    {
      "id": "10",
      "name": "Folder1",
      "type": "folder",
      "size": 50,
      "parentId": "/",
      "owner": "François"
    },
    {
      "id": "1",
      "name": "File1",
      "type": "file",
      "size": 5,
      "parentId": "10",
      "owner": "François"
    },
    {
      "id": "11",
      "name": "Folder2",
      "type": "folder",
      "size": 100,
      "parentId": "/",
      "owner": "François"
    },
    {
      "id": "2",
      "name": "File2",
      "type": "file",
      "size": 10,
      "parentId": "11",
      "owner": "François"
    },
    {
      "id": "12",
      "name": "Folder3",
      "type": "folder",
      "size": 500,
      "parentId": "11",
      "owner": "François"
    },
    {
      "id": "3",
      "name": "File3",
      "type": "file",
      "size": 15,
      "parentId": "12",
      "owner": "François"
    },
    {
      "id": "4",
      "name": "File4",
      "type": "file",
      "size": 20,
      "parentId": "12",
      "owner": "François"
    }
  ]
}
